-target:library
-out:"Library/Bee/artifacts/1900b0aE.dag/Assembly-CSharp.dll"
-refout:"Library/Bee/artifacts/1900b0aE.dag/Assembly-CSharp.ref.dll"
-define:UNITY_2021_3_9
-define:UNITY_2021_3
-define:UNITY_2021
-define:UNITY_5_3_OR_NEWER
-define:UNITY_5_4_OR_NEWER
-define:UNITY_5_5_OR_NEWER
-define:UNITY_5_6_OR_NEWER
-define:UNITY_2017_1_OR_NEWER
-define:UNITY_2017_2_OR_NEWER
-define:UNITY_2017_3_OR_NEWER
-define:UNITY_2017_4_OR_NEWER
-define:UNITY_2018_1_OR_NEWER
-define:UNITY_2018_2_OR_NEWER
-define:UNITY_2018_3_OR_NEWER
-define:UNITY_2018_4_OR_NEWER
-define:UNITY_2019_1_OR_NEWER
-define:UNITY_2019_2_OR_NEWER
-define:UNITY_2019_3_OR_NEWER
-define:UNITY_2019_4_OR_NEWER
-define:UNITY_2020_1_OR_NEWER
-define:UNITY_2020_2_OR_NEWER
-define:UNITY_2020_3_OR_NEWER
-define:UNITY_2021_1_OR_NEWER
-define:UNITY_2021_2_OR_NEWER
-define:UNITY_2021_3_OR_NEWER
-define:PLATFORM_ARCH_64
-define:UNITY_64
-define:UNITY_INCLUDE_TESTS
-define:USE_SEARCH_ENGINE_API
-define:USE_SEARCH_TABLE
-define:USE_SEARCH_MODULE
-define:USE_PROPERTY_DATABASE
-define:USE_SEARCH_EXTENSION_API
-define:SCENE_TEMPLATE_MODULE
-define:ENABLE_AR
-define:ENABLE_AUDIO
-define:ENABLE_CACHING
-define:ENABLE_CLOTH
-define:ENABLE_EVENT_QUEUE
-define:ENABLE_MICROPHONE
-define:ENABLE_MULTIPLE_DISPLAYS
-define:ENABLE_PHYSICS
-define:ENABLE_TEXTURE_STREAMING
-define:ENABLE_VIRTUALTEXTURING
-define:ENABLE_UNET
-define:ENABLE_LZMA
-define:ENABLE_UNITYEVENTS
-define:ENABLE_VR
-define:ENABLE_WEBCAM
-define:ENABLE_UNITYWEBREQUEST
-define:ENABLE_WWW
-define:ENABLE_CLOUD_SERVICES
-define:ENABLE_CLOUD_SERVICES_COLLAB
-define:ENABLE_CLOUD_SERVICES_COLLAB_SOFTLOCKS
-define:ENABLE_CLOUD_SERVICES_ADS
-define:ENABLE_CLOUD_SERVICES_USE_WEBREQUEST
-define:ENABLE_CLOUD_SERVICES_CRASH_REPORTING
-define:ENABLE_CLOUD_SERVICES_PURCHASING
-define:ENABLE_CLOUD_SERVICES_ANALYTICS
-define:ENABLE_CLOUD_SERVICES_UNET
-define:ENABLE_CLOUD_SERVICES_BUILD
-define:ENABLE_CLOUD_LICENSE
-define:ENABLE_EDITOR_HUB_LICENSE
-define:ENABLE_WEBSOCKET_CLIENT
-define:ENABLE_DIRECTOR_AUDIO
-define:ENABLE_DIRECTOR_TEXTURE
-define:ENABLE_MANAGED_JOBS
-define:ENABLE_MANAGED_TRANSFORM_JOBS
-define:ENABLE_MANAGED_ANIMATION_JOBS
-define:ENABLE_MANAGED_AUDIO_JOBS
-define:ENABLE_MANAGED_UNITYTLS
-define:INCLUDE_DYNAMIC_GI
-define:ENABLE_SCRIPTING_GC_WBARRIERS
-define:PLATFORM_SUPPORTS_MONO
-define:RENDER_SOFTWARE_CURSOR
-define:ENABLE_VIDEO
-define:ENABLE_ACCELERATOR_CLIENT_DEBUGGING
-define:PLATFORM_STANDALONE
-define:TEXTCORE_1_0_OR_NEWER
-define:PLATFORM_STANDALONE_WIN
-define:UNITY_STANDALONE_WIN
-define:UNITY_STANDALONE
-define:ENABLE_RUNTIME_GI
-define:ENABLE_MOVIES
-define:ENABLE_NETWORK
-define:ENABLE_NVIDIA
-define:ENABLE_CRUNCH_TEXTURE_COMPRESSION
-define:ENABLE_OUT_OF_PROCESS_CRASH_HANDLER
-define:ENABLE_CLUSTER_SYNC
-define:ENABLE_CLUSTERINPUT
-define:PLATFORM_UPDATES_TIME_OUTSIDE_OF_PLAYER_LOOP
-define:GFXDEVICE_WAITFOREVENT_MESSAGEPUMP
-define:ENABLE_WEBSOCKET_HOST
-define:ENABLE_MONO
-define:NET_STANDARD_2_0
-define:NET_STANDARD
-define:NET_STANDARD_2_1
-define:NETSTANDARD
-define:NETSTANDARD2_1
-define:ENABLE_PROFILER
-define:DEBUG
-define:TRACE
-define:UNITY_ASSERTIONS
-define:UNITY_EDITOR
-define:UNITY_EDITOR_64
-define:UNITY_EDITOR_WIN
-define:ENABLE_UNITY_COLLECTIONS_CHECKS
-define:ENABLE_BURST_AOT
-define:UNITY_TEAM_LICENSE
-define:ENABLE_CUSTOM_RENDER_TEXTURE
-define:ENABLE_DIRECTOR
-define:ENABLE_LOCALIZATION
-define:ENABLE_SPRITES
-define:ENABLE_TERRAIN
-define:ENABLE_TILEMAP
-define:ENABLE_TIMELINE
-define:ENABLE_INPUT_SYSTEM
-define:CSHARP_7_OR_LATER
-define:CSHARP_7_3_OR_NEWER
-r:"Assets/MindPort/VR Builder/Core/Source/Core/Extensions/Plugins/CommandLine/Plugins/CommandLine.dll"
-r:"Assets/MindPort/VR Builder/Core/Source/TextToSpeech-Component/Extensions/Plugins/NAudio/NAudio.dll"
-r:"Assets/MindPort/VR Builder/Core/Source/TextToSpeech-Component/Extensions/Plugins/SpeechLib/Interop.SpeechLib.dll"
-r:"C:/Program Files/Unity/Hub/Editor/2021.3.9f1/Editor/Data/Managed/UnityEngine/UnityEditor.CoreModule.dll"
-r:"C:/Program Files/Unity/Hub/Editor/2021.3.9f1/Editor/Data/Managed/UnityEngine/UnityEditor.DeviceSimulatorModule.dll"
-r:"C:/Program Files/Unity/Hub/Editor/2021.3.9f1/Editor/Data/Managed/UnityEngine/UnityEditor.DiagnosticsModule.dll"
-r:"C:/Program Files/Unity/Hub/Editor/2021.3.9f1/Editor/Data/Managed/UnityEngine/UnityEditor.dll"
-r:"C:/Program Files/Unity/Hub/Editor/2021.3.9f1/Editor/Data/Managed/UnityEngine/UnityEditor.GraphViewModule.dll"
-r:"C:/Program Files/Unity/Hub/Editor/2021.3.9f1/Editor/Data/Managed/UnityEngine/UnityEditor.PackageManagerUIModule.dll"
-r:"C:/Program Files/Unity/Hub/Editor/2021.3.9f1/Editor/Data/Managed/UnityEngine/UnityEditor.QuickSearchModule.dll"
-r:"C:/Program Files/Unity/Hub/Editor/2021.3.9f1/Editor/Data/Managed/UnityEngine/UnityEditor.SceneTemplateModule.dll"
-r:"C:/Program Files/Unity/Hub/Editor/2021.3.9f1/Editor/Data/Managed/UnityEngine/UnityEditor.TextCoreFontEngineModule.dll"
-r:"C:/Program Files/Unity/Hub/Editor/2021.3.9f1/Editor/Data/Managed/UnityEngine/UnityEditor.TextCoreTextEngineModule.dll"
-r:"C:/Program Files/Unity/Hub/Editor/2021.3.9f1/Editor/Data/Managed/UnityEngine/UnityEditor.UIBuilderModule.dll"
-r:"C:/Program Files/Unity/Hub/Editor/2021.3.9f1/Editor/Data/Managed/UnityEngine/UnityEditor.UIElementsModule.dll"
-r:"C:/Program Files/Unity/Hub/Editor/2021.3.9f1/Editor/Data/Managed/UnityEngine/UnityEditor.UIElementsSamplesModule.dll"
-r:"C:/Program Files/Unity/Hub/Editor/2021.3.9f1/Editor/Data/Managed/UnityEngine/UnityEditor.UIServiceModule.dll"
-r:"C:/Program Files/Unity/Hub/Editor/2021.3.9f1/Editor/Data/Managed/UnityEngine/UnityEditor.UnityConnectModule.dll"
-r:"C:/Program Files/Unity/Hub/Editor/2021.3.9f1/Editor/Data/Managed/UnityEngine/UnityEngine.AccessibilityModule.dll"
-r:"C:/Program Files/Unity/Hub/Editor/2021.3.9f1/Editor/Data/Managed/UnityEngine/UnityEngine.AIModule.dll"
-r:"C:/Program Files/Unity/Hub/Editor/2021.3.9f1/Editor/Data/Managed/UnityEngine/UnityEngine.AndroidJNIModule.dll"
-r:"C:/Program Files/Unity/Hub/Editor/2021.3.9f1/Editor/Data/Managed/UnityEngine/UnityEngine.AnimationModule.dll"
-r:"C:/Program Files/Unity/Hub/Editor/2021.3.9f1/Editor/Data/Managed/UnityEngine/UnityEngine.ARModule.dll"
-r:"C:/Program Files/Unity/Hub/Editor/2021.3.9f1/Editor/Data/Managed/UnityEngine/UnityEngine.AssetBundleModule.dll"
-r:"C:/Program Files/Unity/Hub/Editor/2021.3.9f1/Editor/Data/Managed/UnityEngine/UnityEngine.AudioModule.dll"
-r:"C:/Program Files/Unity/Hub/Editor/2021.3.9f1/Editor/Data/Managed/UnityEngine/UnityEngine.ClothModule.dll"
-r:"C:/Program Files/Unity/Hub/Editor/2021.3.9f1/Editor/Data/Managed/UnityEngine/UnityEngine.ClusterInputModule.dll"
-r:"C:/Program Files/Unity/Hub/Editor/2021.3.9f1/Editor/Data/Managed/UnityEngine/UnityEngine.ClusterRendererModule.dll"
-r:"C:/Program Files/Unity/Hub/Editor/2021.3.9f1/Editor/Data/Managed/UnityEngine/UnityEngine.CoreModule.dll"
-r:"C:/Program Files/Unity/Hub/Editor/2021.3.9f1/Editor/Data/Managed/UnityEngine/UnityEngine.CrashReportingModule.dll"
-r:"C:/Program Files/Unity/Hub/Editor/2021.3.9f1/Editor/Data/Managed/UnityEngine/UnityEngine.DirectorModule.dll"
-r:"C:/Program Files/Unity/Hub/Editor/2021.3.9f1/Editor/Data/Managed/UnityEngine/UnityEngine.dll"
-r:"C:/Program Files/Unity/Hub/Editor/2021.3.9f1/Editor/Data/Managed/UnityEngine/UnityEngine.DSPGraphModule.dll"
-r:"C:/Program Files/Unity/Hub/Editor/2021.3.9f1/Editor/Data/Managed/UnityEngine/UnityEngine.GameCenterModule.dll"
-r:"C:/Program Files/Unity/Hub/Editor/2021.3.9f1/Editor/Data/Managed/UnityEngine/UnityEngine.GIModule.dll"
-r:"C:/Program Files/Unity/Hub/Editor/2021.3.9f1/Editor/Data/Managed/UnityEngine/UnityEngine.GridModule.dll"
-r:"C:/Program Files/Unity/Hub/Editor/2021.3.9f1/Editor/Data/Managed/UnityEngine/UnityEngine.HotReloadModule.dll"
-r:"C:/Program Files/Unity/Hub/Editor/2021.3.9f1/Editor/Data/Managed/UnityEngine/UnityEngine.ImageConversionModule.dll"
-r:"C:/Program Files/Unity/Hub/Editor/2021.3.9f1/Editor/Data/Managed/UnityEngine/UnityEngine.IMGUIModule.dll"
-r:"C:/Program Files/Unity/Hub/Editor/2021.3.9f1/Editor/Data/Managed/UnityEngine/UnityEngine.InputLegacyModule.dll"
-r:"C:/Program Files/Unity/Hub/Editor/2021.3.9f1/Editor/Data/Managed/UnityEngine/UnityEngine.InputModule.dll"
-r:"C:/Program Files/Unity/Hub/Editor/2021.3.9f1/Editor/Data/Managed/UnityEngine/UnityEngine.JSONSerializeModule.dll"
-r:"C:/Program Files/Unity/Hub/Editor/2021.3.9f1/Editor/Data/Managed/UnityEngine/UnityEngine.LocalizationModule.dll"
-r:"C:/Program Files/Unity/Hub/Editor/2021.3.9f1/Editor/Data/Managed/UnityEngine/UnityEngine.ParticleSystemModule.dll"
-r:"C:/Program Files/Unity/Hub/Editor/2021.3.9f1/Editor/Data/Managed/UnityEngine/UnityEngine.PerformanceReportingModule.dll"
-r:"C:/Program Files/Unity/Hub/Editor/2021.3.9f1/Editor/Data/Managed/UnityEngine/UnityEngine.Physics2DModule.dll"
-r:"C:/Program Files/Unity/Hub/Editor/2021.3.9f1/Editor/Data/Managed/UnityEngine/UnityEngine.PhysicsModule.dll"
-r:"C:/Program Files/Unity/Hub/Editor/2021.3.9f1/Editor/Data/Managed/UnityEngine/UnityEngine.ProfilerModule.dll"
-r:"C:/Program Files/Unity/Hub/Editor/2021.3.9f1/Editor/Data/Managed/UnityEngine/UnityEngine.RuntimeInitializeOnLoadManagerInitializerModule.dll"
-r:"C:/Program Files/Unity/Hub/Editor/2021.3.9f1/Editor/Data/Managed/UnityEngine/UnityEngine.ScreenCaptureModule.dll"
-r:"C:/Program Files/Unity/Hub/Editor/2021.3.9f1/Editor/Data/Managed/UnityEngine/UnityEngine.SharedInternalsModule.dll"
-r:"C:/Program Files/Unity/Hub/Editor/2021.3.9f1/Editor/Data/Managed/UnityEngine/UnityEngine.SpriteMaskModule.dll"
-r:"C:/Program Files/Unity/Hub/Editor/2021.3.9f1/Editor/Data/Managed/UnityEngine/UnityEngine.SpriteShapeModule.dll"
-r:"C:/Program Files/Unity/Hub/Editor/2021.3.9f1/Editor/Data/Managed/UnityEngine/UnityEngine.StreamingModule.dll"
-r:"C:/Program Files/Unity/Hub/Editor/2021.3.9f1/Editor/Data/Managed/UnityEngine/UnityEngine.SubstanceModule.dll"
-r:"C:/Program Files/Unity/Hub/Editor/2021.3.9f1/Editor/Data/Managed/UnityEngine/UnityEngine.SubsystemsModule.dll"
-r:"C:/Program Files/Unity/Hub/Editor/2021.3.9f1/Editor/Data/Managed/UnityEngine/UnityEngine.TerrainModule.dll"
-r:"C:/Program Files/Unity/Hub/Editor/2021.3.9f1/Editor/Data/Managed/UnityEngine/UnityEngine.TerrainPhysicsModule.dll"
-r:"C:/Program Files/Unity/Hub/Editor/2021.3.9f1/Editor/Data/Managed/UnityEngine/UnityEngine.TextCoreFontEngineModule.dll"
-r:"C:/Program Files/Unity/Hub/Editor/2021.3.9f1/Editor/Data/Managed/UnityEngine/UnityEngine.TextCoreTextEngineModule.dll"
-r:"C:/Program Files/Unity/Hub/Editor/2021.3.9f1/Editor/Data/Managed/UnityEngine/UnityEngine.TextRenderingModule.dll"
-r:"C:/Program Files/Unity/Hub/Editor/2021.3.9f1/Editor/Data/Managed/UnityEngine/UnityEngine.TilemapModule.dll"
-r:"C:/Program Files/Unity/Hub/Editor/2021.3.9f1/Editor/Data/Managed/UnityEngine/UnityEngine.TLSModule.dll"
-r:"C:/Program Files/Unity/Hub/Editor/2021.3.9f1/Editor/Data/Managed/UnityEngine/UnityEngine.UIElementsModule.dll"
-r:"C:/Program Files/Unity/Hub/Editor/2021.3.9f1/Editor/Data/Managed/UnityEngine/UnityEngine.UIElementsNativeModule.dll"
-r:"C:/Program Files/Unity/Hub/Editor/2021.3.9f1/Editor/Data/Managed/UnityEngine/UnityEngine.UIModule.dll"
-r:"C:/Program Files/Unity/Hub/Editor/2021.3.9f1/Editor/Data/Managed/UnityEngine/UnityEngine.UmbraModule.dll"
-r:"C:/Program Files/Unity/Hub/Editor/2021.3.9f1/Editor/Data/Managed/UnityEngine/UnityEngine.UNETModule.dll"
-r:"C:/Program Files/Unity/Hub/Editor/2021.3.9f1/Editor/Data/Managed/UnityEngine/UnityEngine.UnityAnalyticsModule.dll"
-r:"C:/Program Files/Unity/Hub/Editor/2021.3.9f1/Editor/Data/Managed/UnityEngine/UnityEngine.UnityConnectModule.dll"
-r:"C:/Program Files/Unity/Hub/Editor/2021.3.9f1/Editor/Data/Managed/UnityEngine/UnityEngine.UnityCurlModule.dll"
-r:"C:/Program Files/Unity/Hub/Editor/2021.3.9f1/Editor/Data/Managed/UnityEngine/UnityEngine.UnityTestProtocolModule.dll"
-r:"C:/Program Files/Unity/Hub/Editor/2021.3.9f1/Editor/Data/Managed/UnityEngine/UnityEngine.UnityWebRequestAssetBundleModule.dll"
-r:"C:/Program Files/Unity/Hub/Editor/2021.3.9f1/Editor/Data/Managed/UnityEngine/UnityEngine.UnityWebRequestAudioModule.dll"
-r:"C:/Program Files/Unity/Hub/Editor/2021.3.9f1/Editor/Data/Managed/UnityEngine/UnityEngine.UnityWebRequestModule.dll"
-r:"C:/Program Files/Unity/Hub/Editor/2021.3.9f1/Editor/Data/Managed/UnityEngine/UnityEngine.UnityWebRequestTextureModule.dll"
-r:"C:/Program Files/Unity/Hub/Editor/2021.3.9f1/Editor/Data/Managed/UnityEngine/UnityEngine.UnityWebRequestWWWModule.dll"
-r:"C:/Program Files/Unity/Hub/Editor/2021.3.9f1/Editor/Data/Managed/UnityEngine/UnityEngine.VehiclesModule.dll"
-r:"C:/Program Files/Unity/Hub/Editor/2021.3.9f1/Editor/Data/Managed/UnityEngine/UnityEngine.VFXModule.dll"
-r:"C:/Program Files/Unity/Hub/Editor/2021.3.9f1/Editor/Data/Managed/UnityEngine/UnityEngine.VideoModule.dll"
-r:"C:/Program Files/Unity/Hub/Editor/2021.3.9f1/Editor/Data/Managed/UnityEngine/UnityEngine.VirtualTexturingModule.dll"
-r:"C:/Program Files/Unity/Hub/Editor/2021.3.9f1/Editor/Data/Managed/UnityEngine/UnityEngine.VRModule.dll"
-r:"C:/Program Files/Unity/Hub/Editor/2021.3.9f1/Editor/Data/Managed/UnityEngine/UnityEngine.WindModule.dll"
-r:"C:/Program Files/Unity/Hub/Editor/2021.3.9f1/Editor/Data/Managed/UnityEngine/UnityEngine.XRModule.dll"
-r:"C:/Program Files/Unity/Hub/Editor/2021.3.9f1/Editor/Data/NetStandard/compat/2.1.0/shims/netfx/mscorlib.dll"
-r:"C:/Program Files/Unity/Hub/Editor/2021.3.9f1/Editor/Data/NetStandard/compat/2.1.0/shims/netfx/System.ComponentModel.Composition.dll"
-r:"C:/Program Files/Unity/Hub/Editor/2021.3.9f1/Editor/Data/NetStandard/compat/2.1.0/shims/netfx/System.Core.dll"
-r:"C:/Program Files/Unity/Hub/Editor/2021.3.9f1/Editor/Data/NetStandard/compat/2.1.0/shims/netfx/System.Data.dll"
-r:"C:/Program Files/Unity/Hub/Editor/2021.3.9f1/Editor/Data/NetStandard/compat/2.1.0/shims/netfx/System.dll"
-r:"C:/Program Files/Unity/Hub/Editor/2021.3.9f1/Editor/Data/NetStandard/compat/2.1.0/shims/netfx/System.Drawing.dll"
-r:"C:/Program Files/Unity/Hub/Editor/2021.3.9f1/Editor/Data/NetStandard/compat/2.1.0/shims/netfx/System.IO.Compression.FileSystem.dll"
-r:"C:/Program Files/Unity/Hub/Editor/2021.3.9f1/Editor/Data/NetStandard/compat/2.1.0/shims/netfx/System.Net.dll"
-r:"C:/Program Files/Unity/Hub/Editor/2021.3.9f1/Editor/Data/NetStandard/compat/2.1.0/shims/netfx/System.Numerics.dll"
-r:"C:/Program Files/Unity/Hub/Editor/2021.3.9f1/Editor/Data/NetStandard/compat/2.1.0/shims/netfx/System.Runtime.Serialization.dll"
-r:"C:/Program Files/Unity/Hub/Editor/2021.3.9f1/Editor/Data/NetStandard/compat/2.1.0/shims/netfx/System.ServiceModel.Web.dll"
-r:"C:/Program Files/Unity/Hub/Editor/2021.3.9f1/Editor/Data/NetStandard/compat/2.1.0/shims/netfx/System.Transactions.dll"
-r:"C:/Program Files/Unity/Hub/Editor/2021.3.9f1/Editor/Data/NetStandard/compat/2.1.0/shims/netfx/System.Web.dll"
-r:"C:/Program Files/Unity/Hub/Editor/2021.3.9f1/Editor/Data/NetStandard/compat/2.1.0/shims/netfx/System.Windows.dll"
-r:"C:/Program Files/Unity/Hub/Editor/2021.3.9f1/Editor/Data/NetStandard/compat/2.1.0/shims/netfx/System.Xml.dll"
-r:"C:/Program Files/Unity/Hub/Editor/2021.3.9f1/Editor/Data/NetStandard/compat/2.1.0/shims/netfx/System.Xml.Linq.dll"
-r:"C:/Program Files/Unity/Hub/Editor/2021.3.9f1/Editor/Data/NetStandard/compat/2.1.0/shims/netfx/System.Xml.Serialization.dll"
-r:"C:/Program Files/Unity/Hub/Editor/2021.3.9f1/Editor/Data/NetStandard/compat/2.1.0/shims/netstandard/Microsoft.Win32.Primitives.dll"
-r:"C:/Program Files/Unity/Hub/Editor/2021.3.9f1/Editor/Data/NetStandard/compat/2.1.0/shims/netstandard/System.AppContext.dll"
-r:"C:/Program Files/Unity/Hub/Editor/2021.3.9f1/Editor/Data/NetStandard/compat/2.1.0/shims/netstandard/System.Buffers.dll"
-r:"C:/Program Files/Unity/Hub/Editor/2021.3.9f1/Editor/Data/NetStandard/compat/2.1.0/shims/netstandard/System.Collections.Concurrent.dll"
-r:"C:/Program Files/Unity/Hub/Editor/2021.3.9f1/Editor/Data/NetStandard/compat/2.1.0/shims/netstandard/System.Collections.dll"
-r:"C:/Program Files/Unity/Hub/Editor/2021.3.9f1/Editor/Data/NetStandard/compat/2.1.0/shims/netstandard/System.Collections.NonGeneric.dll"
-r:"C:/Program Files/Unity/Hub/Editor/2021.3.9f1/Editor/Data/NetStandard/compat/2.1.0/shims/netstandard/System.Collections.Specialized.dll"
-r:"C:/Program Files/Unity/Hub/Editor/2021.3.9f1/Editor/Data/NetStandard/compat/2.1.0/shims/netstandard/System.ComponentModel.dll"
-r:"C:/Program Files/Unity/Hub/Editor/2021.3.9f1/Editor/Data/NetStandard/compat/2.1.0/shims/netstandard/System.ComponentModel.EventBasedAsync.dll"
-r:"C:/Program Files/Unity/Hub/Editor/2021.3.9f1/Editor/Data/NetStandard/compat/2.1.0/shims/netstandard/System.ComponentModel.Primitives.dll"
-r:"C:/Program Files/Unity/Hub/Editor/2021.3.9f1/Editor/Data/NetStandard/compat/2.1.0/shims/netstandard/System.ComponentModel.TypeConverter.dll"
-r:"C:/Program Files/Unity/Hub/Editor/2021.3.9f1/Editor/Data/NetStandard/compat/2.1.0/shims/netstandard/System.Console.dll"
-r:"C:/Program Files/Unity/Hub/Editor/2021.3.9f1/Editor/Data/NetStandard/compat/2.1.0/shims/netstandard/System.Data.Common.dll"
-r:"C:/Program Files/Unity/Hub/Editor/2021.3.9f1/Editor/Data/NetStandard/compat/2.1.0/shims/netstandard/System.Diagnostics.Contracts.dll"
-r:"C:/Program Files/Unity/Hub/Editor/2021.3.9f1/Editor/Data/NetStandard/compat/2.1.0/shims/netstandard/System.Diagnostics.Debug.dll"
-r:"C:/Program Files/Unity/Hub/Editor/2021.3.9f1/Editor/Data/NetStandard/compat/2.1.0/shims/netstandard/System.Diagnostics.FileVersionInfo.dll"
-r:"C:/Program Files/Unity/Hub/Editor/2021.3.9f1/Editor/Data/NetStandard/compat/2.1.0/shims/netstandard/System.Diagnostics.Process.dll"
-r:"C:/Program Files/Unity/Hub/Editor/2021.3.9f1/Editor/Data/NetStandard/compat/2.1.0/shims/netstandard/System.Diagnostics.StackTrace.dll"
-r:"C:/Program Files/Unity/Hub/Editor/2021.3.9f1/Editor/Data/NetStandard/compat/2.1.0/shims/netstandard/System.Diagnostics.TextWriterTraceListener.dll"
-r:"C:/Program Files/Unity/Hub/Editor/2021.3.9f1/Editor/Data/NetStandard/compat/2.1.0/shims/netstandard/System.Diagnostics.Tools.dll"
-r:"C:/Program Files/Unity/Hub/Editor/2021.3.9f1/Editor/Data/NetStandard/compat/2.1.0/shims/netstandard/System.Diagnostics.TraceSource.dll"
-r:"C:/Program Files/Unity/Hub/Editor/2021.3.9f1/Editor/Data/NetStandard/compat/2.1.0/shims/netstandard/System.Diagnostics.Tracing.dll"
-r:"C:/Program Files/Unity/Hub/Editor/2021.3.9f1/Editor/Data/NetStandard/compat/2.1.0/shims/netstandard/System.Drawing.Primitives.dll"
-r:"C:/Program Files/Unity/Hub/Editor/2021.3.9f1/Editor/Data/NetStandard/compat/2.1.0/shims/netstandard/System.Dynamic.Runtime.dll"
-r:"C:/Program Files/Unity/Hub/Editor/2021.3.9f1/Editor/Data/NetStandard/compat/2.1.0/shims/netstandard/System.Globalization.Calendars.dll"
-r:"C:/Program Files/Unity/Hub/Editor/2021.3.9f1/Editor/Data/NetStandard/compat/2.1.0/shims/netstandard/System.Globalization.dll"
-r:"C:/Program Files/Unity/Hub/Editor/2021.3.9f1/Editor/Data/NetStandard/compat/2.1.0/shims/netstandard/System.Globalization.Extensions.dll"
-r:"C:/Program Files/Unity/Hub/Editor/2021.3.9f1/Editor/Data/NetStandard/compat/2.1.0/shims/netstandard/System.IO.Compression.dll"
-r:"C:/Program Files/Unity/Hub/Editor/2021.3.9f1/Editor/Data/NetStandard/compat/2.1.0/shims/netstandard/System.IO.Compression.ZipFile.dll"
-r:"C:/Program Files/Unity/Hub/Editor/2021.3.9f1/Editor/Data/NetStandard/compat/2.1.0/shims/netstandard/System.IO.dll"
-r:"C:/Program Files/Unity/Hub/Editor/2021.3.9f1/Editor/Data/NetStandard/compat/2.1.0/shims/netstandard/System.IO.FileSystem.dll"
-r:"C:/Program Files/Unity/Hub/Editor/2021.3.9f1/Editor/Data/NetStandard/compat/2.1.0/shims/netstandard/System.IO.FileSystem.DriveInfo.dll"
-r:"C:/Program Files/Unity/Hub/Editor/2021.3.9f1/Editor/Data/NetStandard/compat/2.1.0/shims/netstandard/System.IO.FileSystem.Primitives.dll"
-r:"C:/Program Files/Unity/Hub/Editor/2021.3.9f1/Editor/Data/NetStandard/compat/2.1.0/shims/netstandard/System.IO.FileSystem.Watcher.dll"
-r:"C:/Program Files/Unity/Hub/Editor/2021.3.9f1/Editor/Data/NetStandard/compat/2.1.0/shims/netstandard/System.IO.IsolatedStorage.dll"
-r:"C:/Program Files/Unity/Hub/Editor/2021.3.9f1/Editor/Data/NetStandard/compat/2.1.0/shims/netstandard/System.IO.MemoryMappedFiles.dll"
-r:"C:/Program Files/Unity/Hub/Editor/2021.3.9f1/Editor/Data/NetStandard/compat/2.1.0/shims/netstandard/System.IO.Pipes.dll"
-r:"C:/Program Files/Unity/Hub/Editor/2021.3.9f1/Editor/Data/NetStandard/compat/2.1.0/shims/netstandard/System.IO.UnmanagedMemoryStream.dll"
-r:"C:/Program Files/Unity/Hub/Editor/2021.3.9f1/Editor/Data/NetStandard/compat/2.1.0/shims/netstandard/System.Linq.dll"
-r:"C:/Program Files/Unity/Hub/Editor/2021.3.9f1/Editor/Data/NetStandard/compat/2.1.0/shims/netstandard/System.Linq.Expressions.dll"
-r:"C:/Program Files/Unity/Hub/Editor/2021.3.9f1/Editor/Data/NetStandard/compat/2.1.0/shims/netstandard/System.Linq.Parallel.dll"
-r:"C:/Program Files/Unity/Hub/Editor/2021.3.9f1/Editor/Data/NetStandard/compat/2.1.0/shims/netstandard/System.Linq.Queryable.dll"
-r:"C:/Program Files/Unity/Hub/Editor/2021.3.9f1/Editor/Data/NetStandard/compat/2.1.0/shims/netstandard/System.Memory.dll"
-r:"C:/Program Files/Unity/Hub/Editor/2021.3.9f1/Editor/Data/NetStandard/compat/2.1.0/shims/netstandard/System.Net.Http.dll"
-r:"C:/Program Files/Unity/Hub/Editor/2021.3.9f1/Editor/Data/NetStandard/compat/2.1.0/shims/netstandard/System.Net.NameResolution.dll"
-r:"C:/Program Files/Unity/Hub/Editor/2021.3.9f1/Editor/Data/NetStandard/compat/2.1.0/shims/netstandard/System.Net.NetworkInformation.dll"
-r:"C:/Program Files/Unity/Hub/Editor/2021.3.9f1/Editor/Data/NetStandard/compat/2.1.0/shims/netstandard/System.Net.Ping.dll"
-r:"C:/Program Files/Unity/Hub/Editor/2021.3.9f1/Editor/Data/NetStandard/compat/2.1.0/shims/netstandard/System.Net.Primitives.dll"
-r:"C:/Program Files/Unity/Hub/Editor/2021.3.9f1/Editor/Data/NetStandard/compat/2.1.0/shims/netstandard/System.Net.Requests.dll"
-r:"C:/Program Files/Unity/Hub/Editor/2021.3.9f1/Editor/Data/NetStandard/compat/2.1.0/shims/netstandard/System.Net.Security.dll"
-r:"C:/Program Files/Unity/Hub/Editor/2021.3.9f1/Editor/Data/NetStandard/compat/2.1.0/shims/netstandard/System.Net.Sockets.dll"
-r:"C:/Program Files/Unity/Hub/Editor/2021.3.9f1/Editor/Data/NetStandard/compat/2.1.0/shims/netstandard/System.Net.WebHeaderCollection.dll"
-r:"C:/Program Files/Unity/Hub/Editor/2021.3.9f1/Editor/Data/NetStandard/compat/2.1.0/shims/netstandard/System.Net.WebSockets.Client.dll"
-r:"C:/Program Files/Unity/Hub/Editor/2021.3.9f1/Editor/Data/NetStandard/compat/2.1.0/shims/netstandard/System.Net.WebSockets.dll"
-r:"C:/Program Files/Unity/Hub/Editor/2021.3.9f1/Editor/Data/NetStandard/compat/2.1.0/shims/netstandard/System.Numerics.Vectors.dll"
-r:"C:/Program Files/Unity/Hub/Editor/2021.3.9f1/Editor/Data/NetStandard/compat/2.1.0/shims/netstandard/System.ObjectModel.dll"
-r:"C:/Program Files/Unity/Hub/Editor/2021.3.9f1/Editor/Data/NetStandard/compat/2.1.0/shims/netstandard/System.Reflection.DispatchProxy.dll"
-r:"C:/Program Files/Unity/Hub/Editor/2021.3.9f1/Editor/Data/NetStandard/compat/2.1.0/shims/netstandard/System.Reflection.dll"
-r:"C:/Program Files/Unity/Hub/Editor/2021.3.9f1/Editor/Data/NetStandard/compat/2.1.0/shims/netstandard/System.Reflection.Emit.dll"
-r:"C:/Program Files/Unity/Hub/Editor/2021.3.9f1/Editor/Data/NetStandard/compat/2.1.0/shims/netstandard/System.Reflection.Emit.ILGeneration.dll"
-r:"C:/Program Files/Unity/Hub/Editor/2021.3.9f1/Editor/Data/NetStandard/compat/2.1.0/shims/netstandard/System.Reflection.Emit.Lightweight.dll"
-r:"C:/Program Files/Unity/Hub/Editor/2021.3.9f1/Editor/Data/NetStandard/compat/2.1.0/shims/netstandard/System.Reflection.Extensions.dll"
-r:"C:/Program Files/Unity/Hub/Editor/2021.3.9f1/Editor/Data/NetStandard/compat/2.1.0/shims/netstandard/System.Reflection.Primitives.dll"
-r:"C:/Program Files/Unity/Hub/Editor/2021.3.9f1/Editor/Data/NetStandard/compat/2.1.0/shims/netstandard/System.Resources.Reader.dll"
-r:"C:/Program Files/Unity/Hub/Editor/2021.3.9f1/Editor/Data/NetStandard/compat/2.1.0/shims/netstandard/System.Resources.ResourceManager.dll"
-r:"C:/Program Files/Unity/Hub/Editor/2021.3.9f1/Editor/Data/NetStandard/compat/2.1.0/shims/netstandard/System.Resources.Writer.dll"
-r:"C:/Program Files/Unity/Hub/Editor/2021.3.9f1/Editor/Data/NetStandard/compat/2.1.0/shims/netstandard/System.Runtime.CompilerServices.VisualC.dll"
-r:"C:/Program Files/Unity/Hub/Editor/2021.3.9f1/Editor/Data/NetStandard/compat/2.1.0/shims/netstandard/System.Runtime.dll"
-r:"C:/Program Files/Unity/Hub/Editor/2021.3.9f1/Editor/Data/NetStandard/compat/2.1.0/shims/netstandard/System.Runtime.Extensions.dll"
-r:"C:/Program Files/Unity/Hub/Editor/2021.3.9f1/Editor/Data/NetStandard/compat/2.1.0/shims/netstandard/System.Runtime.Handles.dll"
-r:"C:/Program Files/Unity/Hub/Editor/2021.3.9f1/Editor/Data/NetStandard/compat/2.1.0/shims/netstandard/System.Runtime.InteropServices.dll"
-r:"C:/Program Files/Unity/Hub/Editor/2021.3.9f1/Editor/Data/NetStandard/compat/2.1.0/shims/netstandard/System.Runtime.InteropServices.RuntimeInformation.dll"
-r:"C:/Program Files/Unity/Hub/Editor/2021.3.9f1/Editor/Data/NetStandard/compat/2.1.0/shims/netstandard/System.Runtime.Numerics.dll"
-r:"C:/Program Files/Unity/Hub/Editor/2021.3.9f1/Editor/Data/NetStandard/compat/2.1.0/shims/netstandard/System.Runtime.Serialization.Formatters.dll"
-r:"C:/Program Files/Unity/Hub/Editor/2021.3.9f1/Editor/Data/NetStandard/compat/2.1.0/shims/netstandard/System.Runtime.Serialization.Json.dll"
-r:"C:/Program Files/Unity/Hub/Editor/2021.3.9f1/Editor/Data/NetStandard/compat/2.1.0/shims/netstandard/System.Runtime.Serialization.Primitives.dll"
-r:"C:/Program Files/Unity/Hub/Editor/2021.3.9f1/Editor/Data/NetStandard/compat/2.1.0/shims/netstandard/System.Runtime.Serialization.Xml.dll"
-r:"C:/Program Files/Unity/Hub/Editor/2021.3.9f1/Editor/Data/NetStandard/compat/2.1.0/shims/netstandard/System.Security.Claims.dll"
-r:"C:/Program Files/Unity/Hub/Editor/2021.3.9f1/Editor/Data/NetStandard/compat/2.1.0/shims/netstandard/System.Security.Cryptography.Algorithms.dll"
-r:"C:/Program Files/Unity/Hub/Editor/2021.3.9f1/Editor/Data/NetStandard/compat/2.1.0/shims/netstandard/System.Security.Cryptography.Csp.dll"
-r:"C:/Program Files/Unity/Hub/Editor/2021.3.9f1/Editor/Data/NetStandard/compat/2.1.0/shims/netstandard/System.Security.Cryptography.Encoding.dll"
-r:"C:/Program Files/Unity/Hub/Editor/2021.3.9f1/Editor/Data/NetStandard/compat/2.1.0/shims/netstandard/System.Security.Cryptography.Primitives.dll"
-r:"C:/Program Files/Unity/Hub/Editor/2021.3.9f1/Editor/Data/NetStandard/compat/2.1.0/shims/netstandard/System.Security.Cryptography.X509Certificates.dll"
-r:"C:/Program Files/Unity/Hub/Editor/2021.3.9f1/Editor/Data/NetStandard/compat/2.1.0/shims/netstandard/System.Security.Principal.dll"
-r:"C:/Program Files/Unity/Hub/Editor/2021.3.9f1/Editor/Data/NetStandard/compat/2.1.0/shims/netstandard/System.Security.SecureString.dll"
-r:"C:/Program Files/Unity/Hub/Editor/2021.3.9f1/Editor/Data/NetStandard/compat/2.1.0/shims/netstandard/System.Text.Encoding.dll"
-r:"C:/Program Files/Unity/Hub/Editor/2021.3.9f1/Editor/Data/NetStandard/compat/2.1.0/shims/netstandard/System.Text.Encoding.Extensions.dll"
-r:"C:/Program Files/Unity/Hub/Editor/2021.3.9f1/Editor/Data/NetStandard/compat/2.1.0/shims/netstandard/System.Text.RegularExpressions.dll"
-r:"C:/Program Files/Unity/Hub/Editor/2021.3.9f1/Editor/Data/NetStandard/compat/2.1.0/shims/netstandard/System.Threading.dll"
-r:"C:/Program Files/Unity/Hub/Editor/2021.3.9f1/Editor/Data/NetStandard/compat/2.1.0/shims/netstandard/System.Threading.Overlapped.dll"
-r:"C:/Program Files/Unity/Hub/Editor/2021.3.9f1/Editor/Data/NetStandard/compat/2.1.0/shims/netstandard/System.Threading.Tasks.dll"
-r:"C:/Program Files/Unity/Hub/Editor/2021.3.9f1/Editor/Data/NetStandard/compat/2.1.0/shims/netstandard/System.Threading.Tasks.Extensions.dll"
-r:"C:/Program Files/Unity/Hub/Editor/2021.3.9f1/Editor/Data/NetStandard/compat/2.1.0/shims/netstandard/System.Threading.Tasks.Parallel.dll"
-r:"C:/Program Files/Unity/Hub/Editor/2021.3.9f1/Editor/Data/NetStandard/compat/2.1.0/shims/netstandard/System.Threading.Thread.dll"
-r:"C:/Program Files/Unity/Hub/Editor/2021.3.9f1/Editor/Data/NetStandard/compat/2.1.0/shims/netstandard/System.Threading.ThreadPool.dll"
-r:"C:/Program Files/Unity/Hub/Editor/2021.3.9f1/Editor/Data/NetStandard/compat/2.1.0/shims/netstandard/System.Threading.Timer.dll"
-r:"C:/Program Files/Unity/Hub/Editor/2021.3.9f1/Editor/Data/NetStandard/compat/2.1.0/shims/netstandard/System.ValueTuple.dll"
-r:"C:/Program Files/Unity/Hub/Editor/2021.3.9f1/Editor/Data/NetStandard/compat/2.1.0/shims/netstandard/System.Xml.ReaderWriter.dll"
-r:"C:/Program Files/Unity/Hub/Editor/2021.3.9f1/Editor/Data/NetStandard/compat/2.1.0/shims/netstandard/System.Xml.XDocument.dll"
-r:"C:/Program Files/Unity/Hub/Editor/2021.3.9f1/Editor/Data/NetStandard/compat/2.1.0/shims/netstandard/System.Xml.XmlDocument.dll"
-r:"C:/Program Files/Unity/Hub/Editor/2021.3.9f1/Editor/Data/NetStandard/compat/2.1.0/shims/netstandard/System.Xml.XmlSerializer.dll"
-r:"C:/Program Files/Unity/Hub/Editor/2021.3.9f1/Editor/Data/NetStandard/compat/2.1.0/shims/netstandard/System.Xml.XPath.dll"
-r:"C:/Program Files/Unity/Hub/Editor/2021.3.9f1/Editor/Data/NetStandard/compat/2.1.0/shims/netstandard/System.Xml.XPath.XDocument.dll"
-r:"C:/Program Files/Unity/Hub/Editor/2021.3.9f1/Editor/Data/NetStandard/Extensions/2.0.0/System.Runtime.InteropServices.WindowsRuntime.dll"
-r:"C:/Program Files/Unity/Hub/Editor/2021.3.9f1/Editor/Data/NetStandard/ref/2.1.0/netstandard.dll"
-r:"C:/Program Files/Unity/Hub/Editor/2021.3.9f1/Editor/Data/PlaybackEngines/AndroidPlayer/Unity.Android.Gradle.dll"
-r:"C:/Program Files/Unity/Hub/Editor/2021.3.9f1/Editor/Data/PlaybackEngines/AndroidPlayer/Unity.Android.Types.dll"
-r:"C:/Users/RISET-1/Project/Create-with-VR_2020LTS/VR Room Project/Library/PackageCache/com.unity.burst@1.7.3/Unity.Burst.CodeGen/Unity.Burst.Cecil.dll"
-r:"C:/Users/RISET-1/Project/Create-with-VR_2020LTS/VR Room Project/Library/PackageCache/com.unity.burst@1.7.3/Unity.Burst.CodeGen/Unity.Burst.Cecil.Mdb.dll"
-r:"C:/Users/RISET-1/Project/Create-with-VR_2020LTS/VR Room Project/Library/PackageCache/com.unity.burst@1.7.3/Unity.Burst.CodeGen/Unity.Burst.Cecil.Pdb.dll"
-r:"C:/Users/RISET-1/Project/Create-with-VR_2020LTS/VR Room Project/Library/PackageCache/com.unity.burst@1.7.3/Unity.Burst.CodeGen/Unity.Burst.Cecil.Rocks.dll"
-r:"C:/Users/RISET-1/Project/Create-with-VR_2020LTS/VR Room Project/Library/PackageCache/com.unity.burst@1.7.3/Unity.Burst.Unsafe.dll"
-r:"C:/Users/RISET-1/Project/Create-with-VR_2020LTS/VR Room Project/Library/PackageCache/com.unity.nuget.newtonsoft-json@3.0.2/Runtime/Newtonsoft.Json.dll"
-r:"Library/Bee/artifacts/1900b0aE.dag/PPv2URPConverters.ref.dll"
-r:"Library/Bee/artifacts/1900b0aE.dag/Unity.Burst.Editor.ref.dll"
-r:"Library/Bee/artifacts/1900b0aE.dag/Unity.Burst.ref.dll"
-r:"Library/Bee/artifacts/1900b0aE.dag/Unity.InputSystem.ref.dll"
-r:"Library/Bee/artifacts/1900b0aE.dag/Unity.Mathematics.Editor.ref.dll"
-r:"Library/Bee/artifacts/1900b0aE.dag/Unity.Mathematics.ref.dll"
-r:"Library/Bee/artifacts/1900b0aE.dag/Unity.PlasticSCM.Editor.ref.dll"
-r:"Library/Bee/artifacts/1900b0aE.dag/Unity.RenderPipeline.Universal.ShaderLibrary.ref.dll"
-r:"Library/Bee/artifacts/1900b0aE.dag/Unity.RenderPipelines.Core.Editor.ref.dll"
-r:"Library/Bee/artifacts/1900b0aE.dag/Unity.RenderPipelines.Core.Runtime.ref.dll"
-r:"Library/Bee/artifacts/1900b0aE.dag/Unity.RenderPipelines.Core.ShaderLibrary.ref.dll"
-r:"Library/Bee/artifacts/1900b0aE.dag/Unity.RenderPipelines.ShaderGraph.ShaderGraphLibrary.ref.dll"
-r:"Library/Bee/artifacts/1900b0aE.dag/Unity.RenderPipelines.Universal.Editor.ref.dll"
-r:"Library/Bee/artifacts/1900b0aE.dag/Unity.RenderPipelines.Universal.Runtime.ref.dll"
-r:"Library/Bee/artifacts/1900b0aE.dag/Unity.RenderPipelines.Universal.Shaders.ref.dll"
-r:"Library/Bee/artifacts/1900b0aE.dag/Unity.Rider.Editor.ref.dll"
-r:"Library/Bee/artifacts/1900b0aE.dag/Unity.Searcher.Editor.ref.dll"
-r:"Library/Bee/artifacts/1900b0aE.dag/Unity.Services.Core.Analytics.ref.dll"
-r:"Library/Bee/artifacts/1900b0aE.dag/Unity.Services.Core.Environments.ref.dll"
-r:"Library/Bee/artifacts/1900b0aE.dag/Unity.Services.Core.ref.dll"
-r:"Library/Bee/artifacts/1900b0aE.dag/Unity.ShaderGraph.Editor.ref.dll"
-r:"Library/Bee/artifacts/1900b0aE.dag/Unity.Subsystem.Registration.ref.dll"
-r:"Library/Bee/artifacts/1900b0aE.dag/Unity.TextMeshPro.Editor.ref.dll"
-r:"Library/Bee/artifacts/1900b0aE.dag/Unity.TextMeshPro.ref.dll"
-r:"Library/Bee/artifacts/1900b0aE.dag/Unity.Timeline.Editor.ref.dll"
-r:"Library/Bee/artifacts/1900b0aE.dag/Unity.Timeline.ref.dll"
-r:"Library/Bee/artifacts/1900b0aE.dag/Unity.VisualStudio.Editor.ref.dll"
-r:"Library/Bee/artifacts/1900b0aE.dag/Unity.VSCode.Editor.ref.dll"
-r:"Library/Bee/artifacts/1900b0aE.dag/Unity.XR.CoreUtils.Editor.ref.dll"
-r:"Library/Bee/artifacts/1900b0aE.dag/Unity.XR.CoreUtils.ref.dll"
-r:"Library/Bee/artifacts/1900b0aE.dag/Unity.XR.Interaction.Toolkit.Editor.ref.dll"
-r:"Library/Bee/artifacts/1900b0aE.dag/Unity.XR.Interaction.Toolkit.ref.dll"
-r:"Library/Bee/artifacts/1900b0aE.dag/Unity.XR.Management.Editor.ref.dll"
-r:"Library/Bee/artifacts/1900b0aE.dag/Unity.XR.Management.ref.dll"
-r:"Library/Bee/artifacts/1900b0aE.dag/Unity.XR.Oculus.Editor.ref.dll"
-r:"Library/Bee/artifacts/1900b0aE.dag/Unity.XR.Oculus.ref.dll"
-r:"Library/Bee/artifacts/1900b0aE.dag/Unity.XR.OpenXR.Editor.ref.dll"
-r:"Library/Bee/artifacts/1900b0aE.dag/Unity.XR.OpenXR.Features.ConformanceAutomation.ref.dll"
-r:"Library/Bee/artifacts/1900b0aE.dag/Unity.XR.OpenXR.Features.OculusQuestSupport.Editor.ref.dll"
-r:"Library/Bee/artifacts/1900b0aE.dag/Unity.XR.OpenXR.Features.OculusQuestSupport.ref.dll"
-r:"Library/Bee/artifacts/1900b0aE.dag/Unity.XR.OpenXR.Features.RuntimeDebugger.Editor.ref.dll"
-r:"Library/Bee/artifacts/1900b0aE.dag/Unity.XR.OpenXR.ref.dll"
-r:"Library/Bee/artifacts/1900b0aE.dag/UnityEditor.SpatialTracking.ref.dll"
-r:"Library/Bee/artifacts/1900b0aE.dag/UnityEditor.UI.ref.dll"
-r:"Library/Bee/artifacts/1900b0aE.dag/UnityEditor.XR.LegacyInputHelpers.ref.dll"
-r:"Library/Bee/artifacts/1900b0aE.dag/UnityEngine.SpatialTracking.ref.dll"
-r:"Library/Bee/artifacts/1900b0aE.dag/UnityEngine.UI.ref.dll"
-r:"Library/Bee/artifacts/1900b0aE.dag/UnityEngine.XR.LegacyInputHelpers.ref.dll"
"Assets/AssetBundleManager.cs"
"Assets/CodeMonkey/HealthSystem/Demo/Demo.cs"
"Assets/CodeMonkey/HealthSystem/Demo/Demo_Bullet.cs"
"Assets/CodeMonkey/HealthSystem/Demo/Demo_Cannon.cs"
"Assets/CodeMonkey/HealthSystem/Demo/Demo_DamageButton.cs"
"Assets/CodeMonkey/HealthSystem/Demo/Demo_DefenseGame.cs"
"Assets/CodeMonkey/HealthSystem/Demo/Demo_HealButton.cs"
"Assets/CodeMonkey/HealthSystem/Demo/Demo_Unit.cs"
"Assets/CodeMonkey/HealthSystem/Demo/Demo_UnitCSharp.cs"
"Assets/CodeMonkey/HealthSystem/Demo/Demo_Zombie.cs"
"Assets/CodeMonkey/HealthSystem/Scripts/HealthBarUI.cs"
"Assets/CodeMonkey/HealthSystem/Scripts/HealthSystem.cs"
"Assets/CodeMonkey/HealthSystem/Scripts/HealthSystemComponent.cs"
"Assets/CodeMonkey/HealthSystem/Scripts/IGetHealthSystem.cs"
"Assets/CodeMonkey/HealthSystem/Scripts/LookAtCamera.cs"
"Assets/CodeMonkey/HealthSystem/_Readme/Readme_HealthSystem.cs"
"Assets/EffectExamples/Misc Effects/Scripts/SpawnEffect.cs"
"Assets/MindPort/VR Builder/Core/Source/Basic-Conditions-And-Behaviors/Runtime/Behaviors/BehaviorSequence.cs"
"Assets/MindPort/VR Builder/Core/Source/Basic-Conditions-And-Behaviors/Runtime/Behaviors/ConfettiBehavior.cs"
"Assets/MindPort/VR Builder/Core/Source/Basic-Conditions-And-Behaviors/Runtime/Behaviors/DelayBehavior.cs"
"Assets/MindPort/VR Builder/Core/Source/Basic-Conditions-And-Behaviors/Runtime/Behaviors/DisableGameObjectBehavior.cs"
"Assets/MindPort/VR Builder/Core/Source/Basic-Conditions-And-Behaviors/Runtime/Behaviors/EnableGameObjectBehavior.cs"
"Assets/MindPort/VR Builder/Core/Source/Basic-Conditions-And-Behaviors/Runtime/Behaviors/HighlightObjectBehavior.cs"
"Assets/MindPort/VR Builder/Core/Source/Basic-Conditions-And-Behaviors/Runtime/Behaviors/LockObjectBehavior.cs"
"Assets/MindPort/VR Builder/Core/Source/Basic-Conditions-And-Behaviors/Runtime/Behaviors/MoveObjectBehavior.cs"
"Assets/MindPort/VR Builder/Core/Source/Basic-Conditions-And-Behaviors/Runtime/Behaviors/PlayAudioBehavior.cs"
"Assets/MindPort/VR Builder/Core/Source/Basic-Conditions-And-Behaviors/Runtime/Behaviors/ResetValueBehavior.cs"
"Assets/MindPort/VR Builder/Core/Source/Basic-Conditions-And-Behaviors/Runtime/Behaviors/ScalingBehavior.cs"
"Assets/MindPort/VR Builder/Core/Source/Basic-Conditions-And-Behaviors/Runtime/Behaviors/SetParentBehavior.cs"
"Assets/MindPort/VR Builder/Core/Source/Basic-Conditions-And-Behaviors/Runtime/Behaviors/SetValueBehavior.cs"
"Assets/MindPort/VR Builder/Core/Source/Basic-Conditions-And-Behaviors/Runtime/Behaviors/UnlockObjectBehavior.cs"
"Assets/MindPort/VR Builder/Core/Source/Basic-Conditions-And-Behaviors/Runtime/Conditions/CompareValuesCondition.cs"
"Assets/MindPort/VR Builder/Core/Source/Basic-Conditions-And-Behaviors/Runtime/Conditions/PositionalConditions/IObjectInTargetData.cs"
"Assets/MindPort/VR Builder/Core/Source/Basic-Conditions-And-Behaviors/Runtime/Conditions/PositionalConditions/ObjectInColliderCondition.cs"
"Assets/MindPort/VR Builder/Core/Source/Basic-Conditions-And-Behaviors/Runtime/Conditions/PositionalConditions/ObjectInRangeCondition.cs"
"Assets/MindPort/VR Builder/Core/Source/Basic-Conditions-And-Behaviors/Runtime/Conditions/PositionalConditions/ObjectInTargetCondition.cs"
"Assets/MindPort/VR Builder/Core/Source/Basic-Conditions-And-Behaviors/Runtime/Conditions/TimeoutCondition.cs"
"Assets/MindPort/VR Builder/Core/Source/Basic-Conditions-And-Behaviors/Runtime/DataProperties/Operations/AndOperation.cs"
"Assets/MindPort/VR Builder/Core/Source/Basic-Conditions-And-Behaviors/Runtime/DataProperties/Operations/EqualToOperation.cs"
"Assets/MindPort/VR Builder/Core/Source/Basic-Conditions-And-Behaviors/Runtime/DataProperties/Operations/GreaterOrEqualOperation.cs"
"Assets/MindPort/VR Builder/Core/Source/Basic-Conditions-And-Behaviors/Runtime/DataProperties/Operations/GreaterThanOperation.cs"
"Assets/MindPort/VR Builder/Core/Source/Basic-Conditions-And-Behaviors/Runtime/DataProperties/Operations/IOperationCommand.cs"
"Assets/MindPort/VR Builder/Core/Source/Basic-Conditions-And-Behaviors/Runtime/DataProperties/Operations/LessThanOperation.cs"
"Assets/MindPort/VR Builder/Core/Source/Basic-Conditions-And-Behaviors/Runtime/DataProperties/Operations/LessThanOrEqualOperation.cs"
"Assets/MindPort/VR Builder/Core/Source/Basic-Conditions-And-Behaviors/Runtime/DataProperties/Operations/NotEqualToOperation.cs"
"Assets/MindPort/VR Builder/Core/Source/Basic-Conditions-And-Behaviors/Runtime/DataProperties/Operations/OrOperation.cs"
"Assets/MindPort/VR Builder/Core/Source/Basic-Conditions-And-Behaviors/Runtime/DataProperties/ProcessVariable.cs"
"Assets/MindPort/VR Builder/Core/Source/Basic-Conditions-And-Behaviors/Runtime/ProcessUtilities/ParticleMachines/ConfettiMachine.cs"
"Assets/MindPort/VR Builder/Core/Source/Basic-Conditions-And-Behaviors/Runtime/ProcessUtilities/ParticleMachines/IParticleMachine.cs"
"Assets/MindPort/VR Builder/Core/Source/Basic-Conditions-And-Behaviors/Runtime/Properties/ColliderWithTriggerProperty.cs"
"Assets/MindPort/VR Builder/Core/Source/Basic-Conditions-And-Behaviors/Runtime/Properties/Data/BooleanDataProperty.cs"
"Assets/MindPort/VR Builder/Core/Source/Basic-Conditions-And-Behaviors/Runtime/Properties/Data/DataProperty.cs"
"Assets/MindPort/VR Builder/Core/Source/Basic-Conditions-And-Behaviors/Runtime/Properties/Data/IDataProperty.cs"
"Assets/MindPort/VR Builder/Core/Source/Basic-Conditions-And-Behaviors/Runtime/Properties/Data/IDataPropertyBase.cs"
"Assets/MindPort/VR Builder/Core/Source/Basic-Conditions-And-Behaviors/Runtime/Properties/Data/NumberDataProperty.cs"
"Assets/MindPort/VR Builder/Core/Source/Basic-Conditions-And-Behaviors/Runtime/Properties/Data/TextDataProperty.cs"
"Assets/MindPort/VR Builder/Core/Source/Basic-Conditions-And-Behaviors/Runtime/Properties/Highlighting/BaseHighlightProperty.cs"
"Assets/MindPort/VR Builder/Core/Source/Basic-Conditions-And-Behaviors/Runtime/Properties/Highlighting/EnableHighlightProperty.cs"
"Assets/MindPort/VR Builder/Core/Source/Basic-Conditions-And-Behaviors/Runtime/Properties/Highlighting/IHighlightProperty.cs"
"Assets/MindPort/VR Builder/Core/Source/Basic-Conditions-And-Behaviors/Runtime/Properties/Path/BezierSplinePathProperty.cs"
"Assets/MindPort/VR Builder/Core/Source/Basic-Conditions-And-Behaviors/Runtime/Properties/Path/IPathProperty.cs"
"Assets/MindPort/VR Builder/Core/Source/Basic-Conditions-And-Behaviors/Runtime/Properties/TransformInRangeDetectorProperty.cs"
"Assets/MindPort/VR Builder/Core/Source/Basic-Interaction-Component/Runtime/Behaviors/UnsnapBehavior.cs"
"Assets/MindPort/VR Builder/Core/Source/Basic-Interaction-Component/Runtime/Conditions/GrabbedCondition.cs"
"Assets/MindPort/VR Builder/Core/Source/Basic-Interaction-Component/Runtime/Conditions/ReleasedCondition.cs"
"Assets/MindPort/VR Builder/Core/Source/Basic-Interaction-Component/Runtime/Conditions/SnappedCondition.cs"
"Assets/MindPort/VR Builder/Core/Source/Basic-Interaction-Component/Runtime/Conditions/TeleportCondition.cs"
"Assets/MindPort/VR Builder/Core/Source/Basic-Interaction-Component/Runtime/Conditions/TouchedCondition.cs"
"Assets/MindPort/VR Builder/Core/Source/Basic-Interaction-Component/Runtime/Conditions/UsedCondition.cs"
"Assets/MindPort/VR Builder/Core/Source/Basic-Interaction-Component/Runtime/Highlight/AbstractHighlighter.cs"
"Assets/MindPort/VR Builder/Core/Source/Basic-Interaction-Component/Runtime/Highlight/DefaultHighlighter.cs"
"Assets/MindPort/VR Builder/Core/Source/Basic-Interaction-Component/Runtime/Highlight/ExcludeFromHighlightMesh.cs"
"Assets/MindPort/VR Builder/Core/Source/Basic-Interaction-Component/Runtime/Highlight/HighlightUtils.cs"
"Assets/MindPort/VR Builder/Core/Source/Basic-Interaction-Component/Runtime/Highlight/IExcludeFromHighlightMesh.cs"
"Assets/MindPort/VR Builder/Core/Source/Basic-Interaction-Component/Runtime/Highlight/IHighlighter.cs"
"Assets/MindPort/VR Builder/Core/Source/Basic-Interaction-Component/Runtime/Interaction/BaseInteractionSimulator.cs"
"Assets/MindPort/VR Builder/Core/Source/Basic-Interaction-Component/Runtime/Interaction/IInteractableObject.cs"
"Assets/MindPort/VR Builder/Core/Source/Basic-Interaction-Component/Runtime/Interaction/InteractionSimulatorDummy.cs"
"Assets/MindPort/VR Builder/Core/Source/Basic-Interaction-Component/Runtime/Interaction/ISnapZone.cs"
"Assets/MindPort/VR Builder/Core/Source/Basic-Interaction-Component/Runtime/Locomotion/BaseLocomotionHandler.cs"
"Assets/MindPort/VR Builder/Core/Source/Basic-Interaction-Component/Runtime/Properties/IGrabbableProperty.cs"
"Assets/MindPort/VR Builder/Core/Source/Basic-Interaction-Component/Runtime/Properties/ISnappableProperty.cs"
"Assets/MindPort/VR Builder/Core/Source/Basic-Interaction-Component/Runtime/Properties/ISnapZoneProperty.cs"
"Assets/MindPort/VR Builder/Core/Source/Basic-Interaction-Component/Runtime/Properties/ITeleportationProperty.cs"
"Assets/MindPort/VR Builder/Core/Source/Basic-Interaction-Component/Runtime/Properties/ITouchableProperty.cs"
"Assets/MindPort/VR Builder/Core/Source/Basic-Interaction-Component/Runtime/Properties/IUsableProperty.cs"
"Assets/MindPort/VR Builder/Core/Source/Basic-Interaction-Component/Runtime/RigSetup/InteractionRigProvider.cs"
"Assets/MindPort/VR Builder/Core/Source/Basic-Interaction-Component/Runtime/RigSetup/InteractionRigSetup.cs"
"Assets/MindPort/VR Builder/Core/Source/Basic-Interaction-Component/Runtime/RigSetup/NoRigSetup.cs"
"Assets/MindPort/VR Builder/Core/Source/Basic-Interaction-Component/Runtime/Validation/IsProcessSceneObjectValidation.cs"
"Assets/MindPort/VR Builder/Core/Source/Basic-Interaction-Component/Runtime/Validation/Validator.cs"
"Assets/MindPort/VR Builder/Core/Source/Basic-UI-Component/Runtime/ProcessController/Controllers/BaseProcessController.cs"
"Assets/MindPort/VR Builder/Core/Source/Basic-UI-Component/Runtime/ProcessController/Controllers/DefaultProcessController.cs"
"Assets/MindPort/VR Builder/Core/Source/Basic-UI-Component/Runtime/ProcessController/Controllers/IProcessController.cs"
"Assets/MindPort/VR Builder/Core/Source/Basic-UI-Component/Runtime/ProcessController/Controllers/StandaloneProcessController.cs"
"Assets/MindPort/VR Builder/Core/Source/Basic-UI-Component/Runtime/ProcessController/InitProcessOnSceneLoad.cs"
"Assets/MindPort/VR Builder/Core/Source/Basic-UI-Component/Runtime/ProcessController/ProcessControllerSetup.cs"
"Assets/MindPort/VR Builder/Core/Source/Basic-UI-Component/Runtime/Spectator/SpectatorCamera.cs"
"Assets/MindPort/VR Builder/Core/Source/Basic-UI-Component/Runtime/Spectator/SpectatorCameraDummy.cs"
"Assets/MindPort/VR Builder/Core/Source/Basic-UI-Component/Runtime/Spectator/SpectatorController.cs"
"Assets/MindPort/VR Builder/Core/Source/Basic-UI-Component/Runtime/Utils/FontSetter.cs"
"Assets/MindPort/VR Builder/Core/Source/Core/Runtime/ActivationStateChangedEventArgs.cs"
"Assets/MindPort/VR Builder/Core/Source/Core/Runtime/AssemblyAttributes.cs"
"Assets/MindPort/VR Builder/Core/Source/Core/Runtime/Attributes/DeletableAttribute.cs"
"Assets/MindPort/VR Builder/Core/Source/Core/Runtime/Attributes/DisplayNameAttribute.cs"
"Assets/MindPort/VR Builder/Core/Source/Core/Runtime/Attributes/DrawingPriorityAttribute.cs"
"Assets/MindPort/VR Builder/Core/Source/Core/Runtime/Attributes/DrawIsBlockingToggleAttribute.cs"
"Assets/MindPort/VR Builder/Core/Source/Core/Runtime/Attributes/ExtendableListAttribute.cs"
"Assets/MindPort/VR Builder/Core/Source/Core/Runtime/Attributes/FoldableAttribute.cs"
"Assets/MindPort/VR Builder/Core/Source/Core/Runtime/Attributes/HelpAttribute.cs"
"Assets/MindPort/VR Builder/Core/Source/Core/Runtime/Attributes/HelpLinkAttribute.cs"
"Assets/MindPort/VR Builder/Core/Source/Core/Runtime/Attributes/HideInProcessInspectorAttribute.cs"
"Assets/MindPort/VR Builder/Core/Source/Core/Runtime/Attributes/KeepPopulatedAttribute.cs"
"Assets/MindPort/VR Builder/Core/Source/Core/Runtime/Attributes/ListOfAttribute.cs"
"Assets/MindPort/VR Builder/Core/Source/Core/Runtime/Attributes/MetadataAttribute.cs"
"Assets/MindPort/VR Builder/Core/Source/Core/Runtime/Attributes/ReorderableListOfAttribute.cs"
"Assets/MindPort/VR Builder/Core/Source/Core/Runtime/Attributes/SeparatedAttribute.cs"
"Assets/MindPort/VR Builder/Core/Source/Core/Runtime/Attributes/UsesSpecificProcessDrawerAttribute.cs"
"Assets/MindPort/VR Builder/Core/Source/Core/Runtime/Autocompleter.cs"
"Assets/MindPort/VR Builder/Core/Source/Core/Runtime/BehaviorCollection.cs"
"Assets/MindPort/VR Builder/Core/Source/Core/Runtime/Behaviors/Behavior.cs"
"Assets/MindPort/VR Builder/Core/Source/Core/Runtime/Behaviors/BehaviorExecutionStages.cs"
"Assets/MindPort/VR Builder/Core/Source/Core/Runtime/Behaviors/BehaviorMetadata.cs"
"Assets/MindPort/VR Builder/Core/Source/Core/Runtime/Behaviors/EmptyProcess.cs"
"Assets/MindPort/VR Builder/Core/Source/Core/Runtime/Behaviors/IBehavior.cs"
"Assets/MindPort/VR Builder/Core/Source/Core/Runtime/Behaviors/IBehaviorData.cs"
"Assets/MindPort/VR Builder/Core/Source/Core/Runtime/Behaviors/IBehaviorParent.cs"
"Assets/MindPort/VR Builder/Core/Source/Core/Runtime/Chapter.cs"
"Assets/MindPort/VR Builder/Core/Source/Core/Runtime/ChapterMetadata.cs"
"Assets/MindPort/VR Builder/Core/Source/Core/Runtime/ChildActivatedEventArgs.cs"
"Assets/MindPort/VR Builder/Core/Source/Core/Runtime/ChildDeactivatedEventArgs.cs"
"Assets/MindPort/VR Builder/Core/Source/Core/Runtime/CompletableEntity.cs"
"Assets/MindPort/VR Builder/Core/Source/Core/Runtime/CompositeProcess.cs"
"Assets/MindPort/VR Builder/Core/Source/Core/Runtime/Conditions/BaseActiveProcessOverCompletable.cs"
"Assets/MindPort/VR Builder/Core/Source/Core/Runtime/Conditions/Condition.cs"
"Assets/MindPort/VR Builder/Core/Source/Core/Runtime/Conditions/ICompletableData.cs"
"Assets/MindPort/VR Builder/Core/Source/Core/Runtime/Conditions/ICondition.cs"
"Assets/MindPort/VR Builder/Core/Source/Core/Runtime/Conditions/IConditionData.cs"
"Assets/MindPort/VR Builder/Core/Source/Core/Runtime/Configuration/BaseRuntimeConfiguration.cs"
"Assets/MindPort/VR Builder/Core/Source/Core/Runtime/Configuration/DefaultRuntimeConfiguration.cs"
"Assets/MindPort/VR Builder/Core/Source/Core/Runtime/Configuration/IInteractionComponentConfiguration.cs"
"Assets/MindPort/VR Builder/Core/Source/Core/Runtime/Configuration/IRuntimeConfiguration.cs"
"Assets/MindPort/VR Builder/Core/Source/Core/Runtime/Configuration/Modes/BaseModeHandler.cs"
"Assets/MindPort/VR Builder/Core/Source/Core/Runtime/Configuration/Modes/BlacklistTypeRule.cs"
"Assets/MindPort/VR Builder/Core/Source/Core/Runtime/Configuration/Modes/IConfigurator.cs"
"Assets/MindPort/VR Builder/Core/Source/Core/Runtime/Configuration/Modes/IMode.cs"
"Assets/MindPort/VR Builder/Core/Source/Core/Runtime/Configuration/Modes/IModeData.cs"
"Assets/MindPort/VR Builder/Core/Source/Core/Runtime/Configuration/Modes/IModeHandler.cs"
"Assets/MindPort/VR Builder/Core/Source/Core/Runtime/Configuration/Modes/IOptional.cs"
"Assets/MindPort/VR Builder/Core/Source/Core/Runtime/Configuration/Modes/IRule.cs"
"Assets/MindPort/VR Builder/Core/Source/Core/Runtime/Configuration/Modes/ListTypeRule.cs"
"Assets/MindPort/VR Builder/Core/Source/Core/Runtime/Configuration/Modes/Mode.cs"
"Assets/MindPort/VR Builder/Core/Source/Core/Runtime/Configuration/Modes/ModeChangedEventArgs.cs"
"Assets/MindPort/VR Builder/Core/Source/Core/Runtime/Configuration/Modes/ModeParameter.cs"
"Assets/MindPort/VR Builder/Core/Source/Core/Runtime/Configuration/Modes/TypeRule.cs"
"Assets/MindPort/VR Builder/Core/Source/Core/Runtime/Configuration/Modes/WhitelistTypeRule.cs"
"Assets/MindPort/VR Builder/Core/Source/Core/Runtime/Configuration/RuntimeConfigurator.cs"
"Assets/MindPort/VR Builder/Core/Source/Core/Runtime/Configuration/RuntimeConfigWrapper.cs"
"Assets/MindPort/VR Builder/Core/Source/Core/Runtime/Configurator.cs"
"Assets/MindPort/VR Builder/Core/Source/Core/Runtime/CurrentChildChangedEventArgs.cs"
"Assets/MindPort/VR Builder/Core/Source/Core/Runtime/EmptyAutocompleter.cs"
"Assets/MindPort/VR Builder/Core/Source/Core/Runtime/EmptyConfigurator.cs"
"Assets/MindPort/VR Builder/Core/Source/Core/Runtime/Entities/ChapterFactory.cs"
"Assets/MindPort/VR Builder/Core/Source/Core/Runtime/Entities/EntityFactory.cs"
"Assets/MindPort/VR Builder/Core/Source/Core/Runtime/Entities/EntityPostProcessing.cs"
"Assets/MindPort/VR Builder/Core/Source/Core/Runtime/Entities/ProcessFactory.cs"
"Assets/MindPort/VR Builder/Core/Source/Core/Runtime/Entities/StepFactory.cs"
"Assets/MindPort/VR Builder/Core/Source/Core/Runtime/Entities/StepPostProcessing.cs"
"Assets/MindPort/VR Builder/Core/Source/Core/Runtime/Entities/TransitionFactory.cs"
"Assets/MindPort/VR Builder/Core/Source/Core/Runtime/Entity.cs"
"Assets/MindPort/VR Builder/Core/Source/Core/Runtime/EntityOwners/Collection/EntityCollectionData.cs"
"Assets/MindPort/VR Builder/Core/Source/Core/Runtime/EntityOwners/Collection/IEntityCollectionData.cs"
"Assets/MindPort/VR Builder/Core/Source/Core/Runtime/EntityOwners/Collection/IEntityCollectionDataWithMode.cs"
"Assets/MindPort/VR Builder/Core/Source/Core/Runtime/EntityOwners/Folded/FoldedActivatingProcess.cs"
"Assets/MindPort/VR Builder/Core/Source/Core/Runtime/EntityOwners/Folded/FoldedActiveProcess.cs"
"Assets/MindPort/VR Builder/Core/Source/Core/Runtime/EntityOwners/Folded/FoldedDeactivatingProcess.cs"
"Assets/MindPort/VR Builder/Core/Source/Core/Runtime/EntityOwners/Folded/FoldedLifeCycleConfigurator.cs"
"Assets/MindPort/VR Builder/Core/Source/Core/Runtime/EntityOwners/Parallel/ParallelActivatingProcess.cs"
"Assets/MindPort/VR Builder/Core/Source/Core/Runtime/EntityOwners/Parallel/ParallelActiveProcess.cs"
"Assets/MindPort/VR Builder/Core/Source/Core/Runtime/EntityOwners/Parallel/ParallelConfigurator.cs"
"Assets/MindPort/VR Builder/Core/Source/Core/Runtime/EntityOwners/Parallel/ParallelDeactivatingProcess.cs"
"Assets/MindPort/VR Builder/Core/Source/Core/Runtime/EntityOwners/Parallel/Process.cs"
"Assets/MindPort/VR Builder/Core/Source/Core/Runtime/EntityOwners/Sequence/EntityIteratingProcess.cs"
"Assets/MindPort/VR Builder/Core/Source/Core/Runtime/EntityOwners/Sequence/IEntitySequenceData.cs"
"Assets/MindPort/VR Builder/Core/Source/Core/Runtime/EntityOwners/Sequence/IEntitySequenceDataWithMode.cs"
"Assets/MindPort/VR Builder/Core/Source/Core/Runtime/EntityOwners/Sequence/SequenceConfigurator.cs"
"Assets/MindPort/VR Builder/Core/Source/Core/Runtime/EntityOwners/Sequence/StopEntityIteratingProcess.cs"
"Assets/MindPort/VR Builder/Core/Source/Core/Runtime/Exceptions/AlreadyRegisteredException.cs"
"Assets/MindPort/VR Builder/Core/Source/Core/Runtime/Exceptions/InvalidStateException.cs"
"Assets/MindPort/VR Builder/Core/Source/Core/Runtime/Exceptions/MissingEntityException.cs"
"Assets/MindPort/VR Builder/Core/Source/Core/Runtime/Exceptions/MissingModeException.cs"
"Assets/MindPort/VR Builder/Core/Source/Core/Runtime/Exceptions/NameNotUniqueException.cs"
"Assets/MindPort/VR Builder/Core/Source/Core/Runtime/Exceptions/ProcessException.cs"
"Assets/MindPort/VR Builder/Core/Source/Core/Runtime/Exceptions/PropertyNotFoundException.cs"
"Assets/MindPort/VR Builder/Core/Source/Core/Runtime/FastForwardProcessEventArgs.cs"
"Assets/MindPort/VR Builder/Core/Source/Core/Runtime/IAutocompleter.cs"
"Assets/MindPort/VR Builder/Core/Source/Core/Runtime/IBackgroundBehaviorData.cs"
"Assets/MindPort/VR Builder/Core/Source/Core/Runtime/IBehaviorCollection.cs"
"Assets/MindPort/VR Builder/Core/Source/Core/Runtime/IBehaviorCollectionData.cs"
"Assets/MindPort/VR Builder/Core/Source/Core/Runtime/IChapter.cs"
"Assets/MindPort/VR Builder/Core/Source/Core/Runtime/IChapterData.cs"
"Assets/MindPort/VR Builder/Core/Source/Core/Runtime/ICompletable.cs"
"Assets/MindPort/VR Builder/Core/Source/Core/Runtime/ICompletableEntity.cs"
"Assets/MindPort/VR Builder/Core/Source/Core/Runtime/IData.cs"
"Assets/MindPort/VR Builder/Core/Source/Core/Runtime/IDataOwner.cs"
"Assets/MindPort/VR Builder/Core/Source/Core/Runtime/IDescribable.cs"
"Assets/MindPort/VR Builder/Core/Source/Core/Runtime/IDescribedData.cs"
"Assets/MindPort/VR Builder/Core/Source/Core/Runtime/IEntity.cs"
"Assets/MindPort/VR Builder/Core/Source/Core/Runtime/ILifeCycle.cs"
"Assets/MindPort/VR Builder/Core/Source/Core/Runtime/ILockableStepData.cs"
"Assets/MindPort/VR Builder/Core/Source/Core/Runtime/IMetadata.cs"
"Assets/MindPort/VR Builder/Core/Source/Core/Runtime/INamedData.cs"
"Assets/MindPort/VR Builder/Core/Source/Core/Runtime/Input/DefaultInputController.cs"
"Assets/MindPort/VR Builder/Core/Source/Core/Runtime/Input/IInputActionListener.cs"
"Assets/MindPort/VR Builder/Core/Source/Core/Runtime/Input/IInputFocus.cs"
"Assets/MindPort/VR Builder/Core/Source/Core/Runtime/Input/InputActionListener.cs"
"Assets/MindPort/VR Builder/Core/Source/Core/Runtime/Input/InputController.cs"
"Assets/MindPort/VR Builder/Core/Source/Core/Runtime/InstantProcess.cs"
"Assets/MindPort/VR Builder/Core/Source/Core/Runtime/IO/AndroidFileSystem.cs"
"Assets/MindPort/VR Builder/Core/Source/Core/Runtime/IO/DefaultFileSystem.cs"
"Assets/MindPort/VR Builder/Core/Source/Core/Runtime/IO/FileManager.cs"
"Assets/MindPort/VR Builder/Core/Source/Core/Runtime/IO/IPlatformFileSystem.cs"
"Assets/MindPort/VR Builder/Core/Source/Core/Runtime/IProcess.cs"
"Assets/MindPort/VR Builder/Core/Source/Core/Runtime/IProcessData.cs"
"Assets/MindPort/VR Builder/Core/Source/Core/Runtime/IStageProcess.cs"
"Assets/MindPort/VR Builder/Core/Source/Core/Runtime/IStep.cs"
"Assets/MindPort/VR Builder/Core/Source/Core/Runtime/IStepChild.cs"
"Assets/MindPort/VR Builder/Core/Source/Core/Runtime/IStepData.cs"
"Assets/MindPort/VR Builder/Core/Source/Core/Runtime/ITransition.cs"
"Assets/MindPort/VR Builder/Core/Source/Core/Runtime/ITransitionCollection.cs"
"Assets/MindPort/VR Builder/Core/Source/Core/Runtime/ITransitionCollectionData.cs"
"Assets/MindPort/VR Builder/Core/Source/Core/Runtime/ITransitionData.cs"
"Assets/MindPort/VR Builder/Core/Source/Core/Runtime/LifeCycle.cs"
"Assets/MindPort/VR Builder/Core/Source/Core/Runtime/Localization/LanguageSettings.cs"
"Assets/MindPort/VR Builder/Core/Source/Core/Runtime/Localization/LanguageUtils.cs"
"Assets/MindPort/VR Builder/Core/Source/Core/Runtime/LockableObjectsCollection.cs"
"Assets/MindPort/VR Builder/Core/Source/Core/Runtime/Metadata.cs"
"Assets/MindPort/VR Builder/Core/Source/Core/Runtime/Metadata/ReorderableElementMetadata.cs"
"Assets/MindPort/VR Builder/Core/Source/Core/Runtime/Process.cs"
"Assets/MindPort/VR Builder/Core/Source/Core/Runtime/ProcessController/AttachToUserView.cs"
"Assets/MindPort/VR Builder/Core/Source/Core/Runtime/ProcessController/BasicProcessLoader.cs"
"Assets/MindPort/VR Builder/Core/Source/Core/Runtime/ProcessController/ProcessControllerSetup.cs"
"Assets/MindPort/VR Builder/Core/Source/Core/Runtime/ProcessEventArgs.cs"
"Assets/MindPort/VR Builder/Core/Source/Core/Runtime/ProcessRunner.cs"
"Assets/MindPort/VR Builder/Core/Source/Core/Runtime/ProcessValidation/IAttributeValidator.cs"
"Assets/MindPort/VR Builder/Core/Source/Core/Runtime/ProcessValidation/ReportEntry.cs"
"Assets/MindPort/VR Builder/Core/Source/Core/Runtime/ProcessValidation/ValidationErrorLevel.cs"
"Assets/MindPort/VR Builder/Core/Source/Core/Runtime/Properties/ILockablePropertiesProvider.cs"
"Assets/MindPort/VR Builder/Core/Source/Core/Runtime/Properties/ISceneObjectProperty.cs"
"Assets/MindPort/VR Builder/Core/Source/Core/Runtime/Properties/LockableProperty.cs"
"Assets/MindPort/VR Builder/Core/Source/Core/Runtime/Properties/LockablePropertyData.cs"
"Assets/MindPort/VR Builder/Core/Source/Core/Runtime/Properties/LockablePropertyReference.cs"
"Assets/MindPort/VR Builder/Core/Source/Core/Runtime/Properties/ProcessSceneObjectProperty.cs"
"Assets/MindPort/VR Builder/Core/Source/Core/Runtime/Properties/PropertyReflectionHelper.cs"
"Assets/MindPort/VR Builder/Core/Source/Core/Runtime/Properties/UserSceneObject.cs"
"Assets/MindPort/VR Builder/Core/Source/Core/Runtime/RestrictiveEnvironment/DefaultStepLockHandling.cs"
"Assets/MindPort/VR Builder/Core/Source/Core/Runtime/RestrictiveEnvironment/NonLockingStepHandling.cs"
"Assets/MindPort/VR Builder/Core/Source/Core/Runtime/RestrictiveEnvironment/StepLockHandlingStrategy.cs"
"Assets/MindPort/VR Builder/Core/Source/Core/Runtime/SceneObjects/ILockable.cs"
"Assets/MindPort/VR Builder/Core/Source/Core/Runtime/SceneObjects/ISceneObject.cs"
"Assets/MindPort/VR Builder/Core/Source/Core/Runtime/SceneObjects/ISceneObjectRegistry.cs"
"Assets/MindPort/VR Builder/Core/Source/Core/Runtime/SceneObjects/LockStateChangedEventArgs.cs"
"Assets/MindPort/VR Builder/Core/Source/Core/Runtime/SceneObjects/ObjectReference.cs"
"Assets/MindPort/VR Builder/Core/Source/Core/Runtime/SceneObjects/ProcessSceneObject.cs"
"Assets/MindPort/VR Builder/Core/Source/Core/Runtime/SceneObjects/SceneObjectExtensions.cs"
"Assets/MindPort/VR Builder/Core/Source/Core/Runtime/SceneObjects/SceneObjectReference.cs"
"Assets/MindPort/VR Builder/Core/Source/Core/Runtime/SceneObjects/SceneObjectRegistry.cs"
"Assets/MindPort/VR Builder/Core/Source/Core/Runtime/SceneObjects/ScenePropertyReference.cs"
"Assets/MindPort/VR Builder/Core/Source/Core/Runtime/SceneObjects/UniqueNameReference.cs"
"Assets/MindPort/VR Builder/Core/Source/Core/Runtime/Serialization/IProcessSerializer.cs"
"Assets/MindPort/VR Builder/Core/Source/Core/Runtime/Serialization/NewtonsoftJsonSerializer/AnimationCurveConverter.cs"
"Assets/MindPort/VR Builder/Core/Source/Core/Runtime/Serialization/NewtonsoftJsonSerializer/ImprovedNewtonsoftJsonProcessSerializer.cs"
"Assets/MindPort/VR Builder/Core/Source/Core/Runtime/Serialization/NewtonsoftJsonSerializer/IndividualStepTransitionConverter.cs"
"Assets/MindPort/VR Builder/Core/Source/Core/Runtime/Serialization/NewtonsoftJsonSerializer/KeyframeConverter.cs"
"Assets/MindPort/VR Builder/Core/Source/Core/Runtime/Serialization/NewtonsoftJsonSerializer/NewtonsoftConverterAttribute.cs"
"Assets/MindPort/VR Builder/Core/Source/Core/Runtime/Serialization/NewtonsoftJsonSerializer/NewtonsoftJsonProcessSerializer.cs"
"Assets/MindPort/VR Builder/Core/Source/Core/Runtime/Serialization/NewtonsoftJsonSerializer/UnityColorConverter.cs"
"Assets/MindPort/VR Builder/Core/Source/Core/Runtime/Serialization/NewtonsoftJsonSerializer/Vector2Converter.cs"
"Assets/MindPort/VR Builder/Core/Source/Core/Runtime/Serialization/NewtonsoftJsonSerializer/Vector3Converter.cs"
"Assets/MindPort/VR Builder/Core/Source/Core/Runtime/Serialization/NewtonsoftJsonSerializer/Vector4Converter.cs"
"Assets/MindPort/VR Builder/Core/Source/Core/Runtime/Settings/InteractionSettings.cs"
"Assets/MindPort/VR Builder/Core/Source/Core/Runtime/Stage.cs"
"Assets/MindPort/VR Builder/Core/Source/Core/Runtime/StageProcess.cs"
"Assets/MindPort/VR Builder/Core/Source/Core/Runtime/Step.cs"
"Assets/MindPort/VR Builder/Core/Source/Core/Runtime/StepMetadata.cs"
"Assets/MindPort/VR Builder/Core/Source/Core/Runtime/Transition.cs"
"Assets/MindPort/VR Builder/Core/Source/Core/Runtime/TransitionCollection.cs"
"Assets/MindPort/VR Builder/Core/Source/Core/Runtime/Unity/ConsoleUtils.cs"
"Assets/MindPort/VR Builder/Core/Source/Core/Runtime/Unity/CoroutineDispatcher.cs"
"Assets/MindPort/VR Builder/Core/Source/Core/Runtime/Unity/SceneUtils.cs"
"Assets/MindPort/VR Builder/Core/Source/Core/Runtime/Unity/Singleton.cs"
"Assets/MindPort/VR Builder/Core/Source/Core/Runtime/Unity/UnitTestChecker.cs"
"Assets/MindPort/VR Builder/Core/Source/Core/Runtime/Unity/UnityDebugLogErrorWriter.cs"
"Assets/MindPort/VR Builder/Core/Source/Core/Runtime/Unity/UnitySceneSingleton.cs"
"Assets/MindPort/VR Builder/Core/Source/Core/Runtime/Unity/UnitySingleton.cs"
"Assets/MindPort/VR Builder/Core/Source/Core/Runtime/Utils/Audio/IAudioData.cs"
"Assets/MindPort/VR Builder/Core/Source/Core/Runtime/Utils/Audio/ResourceAudio.cs"
"Assets/MindPort/VR Builder/Core/Source/Core/Runtime/Utils/Bezier/Bezier.cs"
"Assets/MindPort/VR Builder/Core/Source/Core/Runtime/Utils/Bezier/BezierControlPointMode.cs"
"Assets/MindPort/VR Builder/Core/Source/Core/Runtime/Utils/Bezier/BezierSpline.cs"
"Assets/MindPort/VR Builder/Core/Source/Core/Runtime/Utils/ICanBeEmpty.cs"
"Assets/MindPort/VR Builder/Core/Source/Core/Runtime/Utils/LockObjectsOnSceneStart.cs"
"Assets/MindPort/VR Builder/Core/Source/Core/Runtime/Utils/Logging/LifeCycleLoggingConfig.cs"
"Assets/MindPort/VR Builder/Core/Source/Core/Runtime/Utils/MathUtils.cs"
"Assets/MindPort/VR Builder/Core/Source/Core/Runtime/Utils/ProcessReferenceUtils.cs"
"Assets/MindPort/VR Builder/Core/Source/Core/Runtime/Utils/ReflectionUtils.cs"
"Assets/MindPort/VR Builder/Core/Source/Core/Runtime/Utils/SettingsObject.cs"
"Assets/MindPort/VR Builder/Core/Source/Core/Runtime/Utils/SortingUtils.cs"
"Assets/MindPort/VR Builder/Core/Source/Package-Manager/PackageDependencies/InputSystemPackageEnabler.cs"
"Assets/MindPort/VR Builder/Core/Source/Package-Manager/PackageDependencies/NewtonsoftJSONPackageEnabler.cs"
"Assets/MindPort/VR Builder/Core/Source/Package-Manager/PackageDependencies/PostProcessingPackageEnabler.cs"
"Assets/MindPort/VR Builder/Core/Source/Package-Manager/PackageManager/Dependency.cs"
"Assets/MindPort/VR Builder/Core/Source/Package-Manager/PackageManager/DependencyManager.cs"
"Assets/MindPort/VR Builder/Core/Source/Package-Manager/PackageManager/LayerUtils.cs"
"Assets/MindPort/VR Builder/Core/Source/Package-Manager/PackageManager/PackageOperationsManager.cs"
"Assets/MindPort/VR Builder/Core/Source/TextToSpeech-Component/Runtime/IAudioConverter.cs"
"Assets/MindPort/VR Builder/Core/Source/TextToSpeech-Component/Runtime/IRuntimeConfigurationExtensions.cs"
"Assets/MindPort/VR Builder/Core/Source/TextToSpeech-Component/Runtime/NAudioConverter.cs"
"Assets/MindPort/VR Builder/Core/Source/TextToSpeech-Component/Runtime/Provider/FileTextToSpeechProvider.cs"
"Assets/MindPort/VR Builder/Core/Source/TextToSpeech-Component/Runtime/Provider/GoogleTextToSpeechProvider.cs"
"Assets/MindPort/VR Builder/Core/Source/TextToSpeech-Component/Runtime/Provider/ITextToSpeechProvider.cs"
"Assets/MindPort/VR Builder/Core/Source/TextToSpeech-Component/Runtime/Provider/MicrosoftSapiTextToSpeechProvider.cs"
"Assets/MindPort/VR Builder/Core/Source/TextToSpeech-Component/Runtime/Provider/WatsonTextToSpeechProvider.cs"
"Assets/MindPort/VR Builder/Core/Source/TextToSpeech-Component/Runtime/Provider/WebTextToSpeechProvider.cs"
"Assets/MindPort/VR Builder/Core/Source/TextToSpeech-Component/Runtime/RuntimeConfigurationExtensions.cs"
"Assets/MindPort/VR Builder/Core/Source/TextToSpeech-Component/Runtime/TextToSpeechAudio.cs"
"Assets/MindPort/VR Builder/Core/Source/TextToSpeech-Component/Runtime/TextToSpeechConfiguration.cs"
"Assets/MindPort/VR Builder/Core/Source/TextToSpeech-Component/Runtime/TextToSpeechProviderFactory.cs"
"Assets/MindPort/VR Builder/Core/Source/TextToSpeech-Component/Runtime/TextToSpeechUtils.cs"
"Assets/MindPort/VR Builder/Core/Source/TextToSpeech-Component/Runtime/UnableToParseAudioFormatException.cs"
"Assets/MindPort/VR Builder/Core/Source/XR-Interaction-Component/Source/Runtime/AssemblyAttributes.cs"
"Assets/MindPort/VR Builder/Core/Source/XR-Interaction-Component/Source/Runtime/Configuration/XRInteractionComponentConfiguration.cs"
"Assets/MindPort/VR Builder/Core/Source/XR-Interaction-Component/Source/Runtime/Hands/Animation/HandAnimatorController.cs"
"Assets/MindPort/VR Builder/Core/Source/XR-Interaction-Component/Source/Runtime/Interaction/Action-based/ActionBasedControllerManager.cs"
"Assets/MindPort/VR Builder/Core/Source/XR-Interaction-Component/Source/Runtime/Interaction/Action-based/LocomotionSchemeManager.cs"
"Assets/MindPort/VR Builder/Core/Source/XR-Interaction-Component/Source/Runtime/Interaction/Device-based/ControllerManager.cs"
"Assets/MindPort/VR Builder/Core/Source/XR-Interaction-Component/Source/Runtime/Interaction/Interactables/InteractableHighlighter.cs"
"Assets/MindPort/VR Builder/Core/Source/XR-Interaction-Component/Source/Runtime/Interaction/Interactables/InteractableObject.cs"
"Assets/MindPort/VR Builder/Core/Source/XR-Interaction-Component/Source/Runtime/Interaction/Interactors/DirectInteractor.cs"
"Assets/MindPort/VR Builder/Core/Source/XR-Interaction-Component/Source/Runtime/Interaction/Interactors/RayInteractor.cs"
"Assets/MindPort/VR Builder/Core/Source/XR-Interaction-Component/Source/Runtime/Interaction/Interactors/SnapZone.cs"
"Assets/MindPort/VR Builder/Core/Source/XR-Interaction-Component/Source/Runtime/Interaction/Interactors/SnapZonePreviewDrawer.cs"
"Assets/MindPort/VR Builder/Core/Source/XR-Interaction-Component/Source/Runtime/Locomotion/RigManipulationProvider.cs"
"Assets/MindPort/VR Builder/Core/Source/XR-Interaction-Component/Source/Runtime/Locomotion/XRLocomotionHandler.cs"
"Assets/MindPort/VR Builder/Core/Source/XR-Interaction-Component/Source/Runtime/Properties/GrabbableProperty.cs"
"Assets/MindPort/VR Builder/Core/Source/XR-Interaction-Component/Source/Runtime/Properties/HighlightProperty.cs"
"Assets/MindPort/VR Builder/Core/Source/XR-Interaction-Component/Source/Runtime/Properties/SnappableProperty.cs"
"Assets/MindPort/VR Builder/Core/Source/XR-Interaction-Component/Source/Runtime/Properties/SnapZoneProperty.cs"
"Assets/MindPort/VR Builder/Core/Source/XR-Interaction-Component/Source/Runtime/Properties/TeleportationProperty.cs"
"Assets/MindPort/VR Builder/Core/Source/XR-Interaction-Component/Source/Runtime/Properties/TouchableProperty.cs"
"Assets/MindPort/VR Builder/Core/Source/XR-Interaction-Component/Source/Runtime/Properties/UsableProperty.cs"
"Assets/MindPort/VR Builder/Core/Source/XR-Interaction-Component/Source/Runtime/Rigs/XRLegacySetup.cs"
"Assets/MindPort/VR Builder/Core/Source/XR-Interaction-Component/Source/Runtime/Rigs/XRSetup.cs"
"Assets/MindPort/VR Builder/Core/Source/XR-Interaction-Component/Source/Runtime/Rigs/XRSetupBase.cs"
"Assets/MindPort/VR Builder/Core/Source/XR-Interaction-Component/Source/Runtime/Rigs/XRSimulatorSetup.cs"
"Assets/Oculus Hands Physics/Scripts/HandPresence.cs"
"Assets/Scripts/BodyCollision.cs"
"Assets/Scripts/ChangeScene.cs"
"Assets/Scripts/DistanceJoint3D.cs"
"Assets/Scripts/Exhaust.cs"
"Assets/Scripts/Fire Extinguisher/AssetBundle.cs"
"Assets/Scripts/Fire Extinguisher/Extinguisher.cs"
"Assets/Scripts/Fire Extinguisher/Fire.cs"
"Assets/Scripts/Fire Extinguisher/PartCol.cs"
"Assets/Scripts/GrabObjectInteraction.cs"
"Assets/Scripts/HealthBar.cs"
"Assets/Scripts/HideObject.cs"
"Assets/Scripts/Line.cs"
"Assets/Scripts/NewBehaviourScript.cs"
"Assets/Scripts/OxygenBar.cs"
"Assets/Scripts/Player.cs"
"Assets/Scripts/PlayerBounce.cs"
"Assets/Scripts/RopeRoot.cs"
"Assets/Scripts/Rotator.cs"
"Assets/Scripts/ShowObject.cs"
"Assets/Scripts/SimpleCameraController1.cs"
"Assets/Scripts/sound/Fire Sound/Audio.cs"
"Assets/Scripts/ToogleObject.cs"
"Assets/_Course Library/Scripts/Actions/ApplyPhysics.cs"
"Assets/_Course Library/Scripts/Actions/ChangeMaterial.cs"
"Assets/_Course Library/Scripts/Actions/ConvertValueToHue.cs"
"Assets/_Course Library/Scripts/Actions/CreateTrail.cs"
"Assets/_Course Library/Scripts/Actions/DestroyObject.cs"
"Assets/_Course Library/Scripts/Actions/FadeCanvas.cs"
"Assets/_Course Library/Scripts/Actions/FadeCanvasOnOverlap.cs"
"Assets/_Course Library/Scripts/Actions/LaunchProjectile.cs"
"Assets/_Course Library/Scripts/Actions/LoadScene.cs"
"Assets/_Course Library/Scripts/Actions/LookAtPlayer.cs"
"Assets/_Course Library/Scripts/Actions/ManuallySelectObject.cs"
"Assets/_Course Library/Scripts/Actions/MatchRotation.cs"
"Assets/_Course Library/Scripts/Actions/MoveWithVelocity.cs"
"Assets/_Course Library/Scripts/Actions/PlayAnimation.cs"
"Assets/_Course Library/Scripts/Actions/PlayContinuousSound.cs"
"Assets/_Course Library/Scripts/Actions/PlayQuickSound.cs"
"Assets/_Course Library/Scripts/Actions/PlaySoundsFromList.cs"
"Assets/_Course Library/Scripts/Actions/PlayVideo.cs"
"Assets/_Course Library/Scripts/Actions/RemoveObjectsWithTag.cs"
"Assets/_Course Library/Scripts/Actions/RotateObject.cs"
"Assets/_Course Library/Scripts/Actions/ScaleObject.cs"
"Assets/_Course Library/Scripts/Actions/SetInteractionLayer.cs"
"Assets/_Course Library/Scripts/Actions/SetLightColor.cs"
"Assets/_Course Library/Scripts/Actions/SetLightIntensity.cs"
"Assets/_Course Library/Scripts/Actions/SetMaterialColor.cs"
"Assets/_Course Library/Scripts/Actions/SetParticleRate.cs"
"Assets/_Course Library/Scripts/Actions/SetVolume.cs"
"Assets/_Course Library/Scripts/Actions/ShowMessageFromList.cs"
"Assets/_Course Library/Scripts/Actions/SpawnFromList.cs"
"Assets/_Course Library/Scripts/Actions/SpawnObject.cs"
"Assets/_Course Library/Scripts/Actions/StickToObject.cs"
"Assets/_Course Library/Scripts/Actions/TeleportPlayer.cs"
"Assets/_Course Library/Scripts/Actions/ToggleGameObject.cs"
"Assets/_Course Library/Scripts/Actions/ToggleInterface.cs"
"Assets/_Course Library/Scripts/Actions/ToggleLight.cs"
"Assets/_Course Library/Scripts/Actions/ToggleParticle.cs"
"Assets/_Course Library/Scripts/Actions/ToggleRay.cs"
"Assets/_Course Library/Scripts/Actions/ToggleVisibility.cs"
"Assets/_Course Library/Scripts/Actions/TranslateObject.cs"
"Assets/_Course Library/Scripts/Actions/VibrateController.cs"
"Assets/_Course Library/Scripts/Conditions/OnButtonPress.cs"
"Assets/_Course Library/Scripts/Conditions/OnCollision.cs"
"Assets/_Course Library/Scripts/Conditions/OnJoystickMove.cs"
"Assets/_Course Library/Scripts/Conditions/OnPull.cs"
"Assets/_Course Library/Scripts/Conditions/OnSceneLoad.cs"
"Assets/_Course Library/Scripts/Conditions/OnTilt.cs"
"Assets/_Course Library/Scripts/Conditions/OnTimedInterval.cs"
"Assets/_Course Library/Scripts/Conditions/OnTrigger.cs"
"Assets/_Course Library/Scripts/Conditions/OnVelocity.cs"
"Assets/_Course Library/Scripts/Controls/XRButton.cs"
"Assets/_Course Library/Scripts/Controls/XRJoystick.cs"
"Assets/_Course Library/Scripts/Controls/XRKnob.cs"
"Assets/_Course Library/Scripts/Controls/XRLever.cs"
"Assets/_Course Library/Scripts/Controls/XRSlider.cs"
"Assets/_Course Library/Scripts/Testing/DisplayFPS.cs"
"Assets/_Course Library/Scripts/Testing/Notes.cs"
"Assets/_Course Library/Scripts/Testing/TeleportAnchorWithFade.cs"
"Assets/_Course Library/Scripts/Testing/TeleportAreaWithFade.cs"
-langversion:9.0

/deterministic
/optimize+
/debug:portable
/nologo
/RuntimeMetadataVersion:v4.0.30319

/nowarn:0169
/nowarn:0649
/nowarn:1701
/nowarn:1702
/utf8output
/preferreduilang:en-US


/additionalfile:"Library/Bee/artifacts/1900b0aE.dag/Assembly-CSharp.AdditionalFile.txt"